{
  "project_info": {
    "project_number": "621945212644",
    "project_id": "zakaty-cff7b",
    "storage_bucket": "zakaty-cff7b.appspot.com"
  },
  "client": [
    {
      "client_info": {
        "mobilesdk_app_id": "1:621945212644:android:242bd35b483d4ac745e6f1",
        "android_client_info": {
          "package_name": "com.example.push_notificationZakty"
        }
      },
      "oauth_client": [
        {
          "client_id": "621945212644-mj8ofdahk2d1fiivlmqf7gtgfpaj1ark.apps.googleusercontent.com",
          "client_type": 3
        }
      ],
      "api_key": [
        {
          "current_key": "AIzaSyAJfMSYJ9qrtnPdV1cuGzlKfFN-WZzYypE"
        }
      ],
      "services": {
        "appinvite_service": {
          "other_platform_oauth_client": [
            {
              "client_id": "621945212644-mj8ofdahk2d1fiivlmqf7gtgfpaj1ark.apps.googleusercontent.com",
              "client_type": 3
            },
            {
              "client_id": "621945212644-7g41etm83ig3t3necph7512b98iiq3ov.apps.googleusercontent.com",
              "client_type": 2,
              "ios_info": {
                "bundle_id": "com.example.pushNotificationZakaty"
              }
            }
          ]
        }
      }
    },
    {
      "client_info": {
        "mobilesdk_app_id": "1:621945212644:android:b6041e572e929ab545e6f1",
        "android_client_info": {
          "package_name": "com.sa.gazt.ZakatCalculator"
        }
      },
      "oauth_client": [
        {
          "client_id": "621945212644-mj8ofdahk2d1fiivlmqf7gtgfpaj1ark.apps.googleusercontent.com",
          "client_type": 3
        }
      ],
      "api_key": [
        {
          "current_key": "AIzaSyAJfMSYJ9qrtnPdV1cuGzlKfFN-WZzYypE"
        }
      ],
      "services": {
        "appinvite_service": {
          "other_platform_oauth_client": [
            {
              "client_id": "621945212644-mj8ofdahk2d1fiivlmqf7gtgfpaj1ark.apps.googleusercontent.com",
              "client_type": 3
            },
            {
              "client_id": "621945212644-7g41etm83ig3t3necph7512b98iiq3ov.apps.googleusercontent.com",
              "client_type": 2,
              "ios_info": {
                "bundle_id": "com.example.pushNotificationZakaty"
              }
            }
          ]
        }
      }
    }
  ],
  "configuration_version": "1"
}